{
  "protocol_version" : "0.0.6",
  "configuration" : {
    "version" : "(6.12.0.122) (tarball)",
    "tlc" : "__thread",
    "sigsgev" : "altstack",
    "notifications" : "epoll",
    "architecture" : "amd64",
    "disabled_features" : "none",
    "smallconfig" : "disabled",
    "bigarrays" : "disabled",
    "softdebug" : "enabled",
    "interpreter" : "enabled",
    "llvm_support" : "610",
    "suspend" : "hybrid"
  },
  "memory" : {
    "minor_gc_time" : "113182302",
    "major_gc_time" : "19410008",
    "minor_gc_count" : "3326",
    "major_gc_count" : "43",
    "major_gc_time_concurrent" : "5119604964"
 },
  "threads" : [
 {
    "is_managed" : false,
    "offset_free_hash" : "0x0",
    "offset_rich_hash" : "0x0",
    "crashed" : false,
    "native_thread_id" : "0x7fdb1555afc0",
    "thread_info_addr" : "0x5620b2f78360",
    "thread_name" : "GUI Thread",
    "ctx" : {
      "IP" : "0x7fdb15aae618",
      "SP" : "0x7fff5ec57f90",
      "BP" : "0x5620b8ae8390"
  },
    "unmanaged_frames" : [
  {
      "is_managed" : "false",
      "native_address" : "0x5620b1dc64c9",
      "native_offset" : "0x00000"
   }
,
  {
      "is_managed" : "false",
      "native_address" : "0x5620b1fac319",
      "native_offset" : "0x00000"
   }
,
  {
      "is_managed" : "false",
      "native_address" : "0x5620b1fad655",
      "native_offset" : "0x00000"
   }
,
  {
      "is_managed" : "false",
      "native_address" : "0x5620b1fb66c7",
      "native_offset" : "0x00000"
   }
,
  {
      "is_managed" : "false",
      "native_address" : "0x5620b1e1b5b5",
      "native_offset" : "0x00000"
   }
,
  {
      "is_managed" : "false",
      "native_address" : "0x7fdb15ab03c0",
      "native_offset" : "0x00000"
   }
,
  {
      "is_managed" : "false",
      "native_address" : "0x7fdb15aae618",
      "native_offset" : "0x00000"
   }
,
  {
      "is_managed" : "false",
      "native_address" : "0x7fdb15aae743",
      "native_offset" : "0x00000"
   }
,
  {
      "is_managed" : "false",
      "native_address" : "0x5620b1ff829c",
      "native_offset" : "0x00000"
   }
,
  {
      "is_managed" : "false",
      "native_address" : "0x5620b1d956ff",
      "native_offset" : "0x00000"
   }
,
  {
      "is_managed" : "false",
      "native_address" : "0x5620b1d9cf88",
      "native_offset" : "0x00000"
   }
,
  {
      "is_managed" : "false",
      "native_address" : "0x5620b1d8bf1c",
      "native_offset" : "0x00000"
   }
,
  {
      "is_managed" : "false",
      "native_address" : "0x7fdb155830b3",
      "native_offset" : "0x00000"
   }
,
  {
      "is_managed" : "false",
      "native_address" : "0x5620b1d8c53a",
      "native_offset" : "0x00000"
   }

  ]
 },
 {
    "is_managed" : true,
    "offset_free_hash" : "0x12ecaa89f",
    "offset_rich_hash" : "0x12ecaa921",
    "crashed" : true,
    "native_thread_id" : "0x7fdb14edb700",
    "thread_info_addr" : "0x7fdb0c000b60",
    "thread_name" : "Finalizer",
    "ctx" : {
      "IP" : "0x7fdb155d5a61",
      "SP" : "0x7fdb14eda2b0",
      "BP" : "0x7fdb14eda820"
  },
    "managed_frames" : [
  {
      "is_managed" : "false",
      "native_address" : "unregistered"
   }
,
  {
      "is_managed" : "true",
      "guid" : "ED39F21B-9E93-43DC-BD44-2A17AD356A9F",
      "token" : "0x00000",
      "native_offset" : "0x0",
      "filename" : "glib-sharp.dll",
      "sizeofimage" : "0x1e000",
      "timestamp" : "0x0",
      "il_offset" : "0x0000b"
   }
,
  {
      "is_managed" : "true",
      "guid" : "ED39F21B-9E93-43DC-BD44-2A17AD356A9F",
      "token" : "0x6000142",
      "native_offset" : "0x0",
      "filename" : "glib-sharp.dll",
      "sizeofimage" : "0x1e000",
      "timestamp" : "0x0",
      "il_offset" : "0x00014"
   }
,
  {
      "is_managed" : "true",
      "guid" : "7AAB76E8-7BCE-48A4-B45C-F7FA613CB70C",
      "token" : "0x60041bd",
      "native_offset" : "0x0",
      "filename" : "gtk-sharp.dll",
      "sizeofimage" : "0x164000",
      "timestamp" : "0x0",
      "il_offset" : "0x00030"
   }
,
  {
      "is_managed" : "true",
      "guid" : "7AAB76E8-7BCE-48A4-B45C-F7FA613CB70C",
      "token" : "0x60008e2",
      "native_offset" : "0x0",
      "filename" : "gtk-sharp.dll",
      "sizeofimage" : "0x164000",
      "timestamp" : "0x0",
      "il_offset" : "0x00000"
   }
,
  {
      "is_managed" : "true",
      "guid" : "609E8E7D-556D-4B16-BD60-BCA491697A49",
      "token" : "0x6000300",
      "native_offset" : "0x0",
      "filename" : "Xwt.Gtk.dll",
      "sizeofimage" : "0x54000",
      "timestamp" : "0x5d30afe3",
      "il_offset" : "0x00007"
   }
,
  {
      "is_managed" : "true",
      "guid" : "609E8E7D-556D-4B16-BD60-BCA491697A49",
      "token" : "0x6000088",
      "native_offset" : "0x0",
      "filename" : "Xwt.Gtk.dll",
      "sizeofimage" : "0x54000",
      "timestamp" : "0x5d30afe3",
      "il_offset" : "0x00002"
   }
,
  {
      "is_managed" : "true",
      "guid" : "533173D2-4DAE-4608-99D2-B10975534BB0",
      "token" : "0x00000",
      "native_offset" : "0x0",
      "filename" : "mscorlib.dll",
      "sizeofimage" : "0x472000",
      "timestamp" : "0x99dbfea7",
      "il_offset" : "0x0002a"
   }

  ],
  "unmanaged_frames" : [
 {
    "is_managed" : "false",
    "native_address" : "0x5620b1dc64c9",
    "native_offset" : "0x00000"
  }
,
 {
    "is_managed" : "false",
    "native_address" : "0x5620b1fac319",
    "native_offset" : "0x00000"
  }
,
 {
    "is_managed" : "false",
    "native_address" : "0x5620b1fad655",
    "native_offset" : "0x00000"
  }
,
 {
    "is_managed" : "false",
    "native_address" : "0x5620b1fb682c",
    "native_offset" : "0x00000"
  }
,
 {
    "is_managed" : "false",
    "native_address" : "0x5620b1e1c2a7",
    "native_offset" : "0x00000"
  }
,
 {
    "is_managed" : "false",
    "native_address" : "0x5620b1e1c4b9",
    "native_offset" : "0x00000"
  }
,
 {
    "is_managed" : "false",
    "native_address" : "0x5620b1dc87af",
    "native_offset" : "0x00000"
  }
,
 {
    "is_managed" : "false",
    "native_address" : "0x5620b1e15b13",
    "native_offset" : "0x00000"
  }
,
 {
    "is_managed" : "false",
    "native_address" : "0x7fdb155d5a61",
    "native_offset" : "0x00000"
  }
,
 {
    "is_managed" : "false",
    "native_address" : "0x7fdb155ead4a",
    "native_offset" : "0x00000"
  }
,
 {
    "is_managed" : "false",
    "native_address" : "0x7fdb1107d0f3",
    "native_offset" : "0x00000"
  }
,
 {
    "is_managed" : "false",
    "native_address" : "0x7fdb11054301",
    "native_offset" : "0x00000"
  }
,
 {
    "is_managed" : "false",
    "native_address" : "0x7fdb1103b3ae",
    "native_offset" : "0x00000"
  }
,
 {
    "is_managed" : "true",
    "guid" : "ED39F21B-9E93-43DC-BD44-2A17AD356A9F",
    "token" : "0x00000",
    "native_offset" : "0x0",
    "filename" : "glib-sharp.dll",
    "sizeofimage" : "0x1e000",
    "timestamp" : "0x0",
    "il_offset" : "0x00000"
  }

 ]
}
]
}